username,password,number
acd01,0000,2551
acd02,0000,2552
acd03,0000,2553
acd04,0000,2554
acd05,0000,2555
acd06,0000,2556
acd07,0000,2557
acd08,0000,2558
acd09,0000,2559
acd10,0000,2560
acd11,0000,2561
acd12,0000,2562
acd13,0000,2563
acd14,0000,2564
acd15,0000,2565
acd16,0000,2566
acd17,0000,2567
acd18,0000,2568
acd19,0000,2569
acd20,0000,2570
acd21,0000,2571
acd22,0000,2572
acd23,0000,2573
acd24,0000,2574
acd25,0000,2575
acd26,0000,2576
acd27,0000,2577
acd28,0000,2578
acd29,0000,2579
acd30,0000,2580
acd31,0000,2581
acd32,0000,2582
acd33,0000,2583
acd34,0000,2584
acd35,0000,2585
acd36,0000,2586
acd37,0000,2587
acd38,0000,2588
acd39,0000,2589
acd40,0000,2590
acd41,0000,2591
acd42,0000,2592
acd43,0000,2593
acd44,0000,2594
acd45,0000,2595
acd46,0000,2596
acd47,0000,2597
acd48,0000,2598
acd49,0000,2599
acd50,0000,2700
acd51,0000,2701
acd52,0000,2702
acd53,0000,2703
acd54,0000,2704
acd55,0000,2705
acd56,0000,2706
acd57,0000,2707
acd58,0000,2708
acd59,0000,2709
acd60,0000,2710
acd61,0000,2711
acd62,0000,2712
acd63,0000,2713
acd64,0000,2714
acd65,0000,2715
acd66,0000,2716
acd67,0000,2717
acd68,0000,2718
acd69,0000,2719
acd70,0000,2720
acd71,0000,2721
acd72,0000,2722
acd73,0000,2723
acd74,0000,2724
acd75,0000,2725
acd76,0000,2726
acd77,0000,2727
acd78,0000,2728
acd79,0000,2729
acd80,0000,2730
acd81,0000,2731
acd82,0000,2732
acd83,0000,2733
acd84,0000,2734
acd85,0000,2735
acd86,0000,2736
acd87,0000,2737
acd88,0000,2738
acd89,0000,2739
acd90,0000,2740
acd91,0000,2741
acd92,0000,2742
acd93,0000,2743
acd94,0000,2744
acd95,0000,2745
acd96,0000,2746
acd97,0000,2747
acd98,0000,2748
acd99,0000,2749
acd100,0000,2750
acd101,0000,2751
acd102,0000,2752
acd103,0000,2753
acd104,0000,2754
acd105,0000,2755
acd106,0000,2756
acd107,0000,2757
acd108,0000,2758
acd109,0000,2759
acd110,0000,2760
acd111,0000,2761
acd112,0000,2762
acd113,0000,2763
acd114,0000,2764
acd115,0000,2765
acd116,0000,2766
acd117,0000,2767
acd118,0000,2768
acd119,0000,2769
acd120,0000,2770
acd121,0000,2771
acd122,0000,2772
acd123,0000,2773
acd124,0000,2774
acd125,0000,2775
acd126,0000,2776
acd127,0000,2777
acd128,0000,2778
acd129,0000,2779
acd130,0000,2780
acd131,0000,2781
acd132,0000,2782
acd133,0000,2783
acd134,0000,2784
acd135,0000,2785
acd136,0000,2786
acd137,0000,2787
acd138,0000,2788
acd139,0000,2789
acd140,0000,2790
acd141,0000,2791
acd142,0000,2792
acd143,0000,2793
acd144,0000,2794
acd145,0000,2795
acd146,0000,2796
acd147,0000,2797
acd148,0000,2798
acd149,0000,2799